id,name,model_id:id,group_id:id,perm_read,perm_write,perm_create,perm_unlink
reboot_log_user,reboot_log_user,model_reboot_log,reboot_log,1,0,0,0
reboot_log_admin,reboot_log_admin,model_reboot_log,reboot_admin,1,1,1,0
